1
Lorsque la vapeur devient de l'eau liquide, il s'agit d'une :
Vaporisation
Solidification
Liquefaction
Sublimation
Liquefaction
2
Lorsque la glace devient vapeur sans passer par l'etat liquide, il s'agit d'une:
Vaporisation
Solidification
Liquefaction
Sublimation
Sublimation
3
L'eau et l'huile ne se melangent pas. Elles forment un melange :
Homogene
Heterogene
Complexe
Acide
Heterogene
4
Le noyau de l'atome est compose de :
Protons et neutrons
Protons et electrons
Neutrons et electrons
Protons, neutrons et electrons
Protons et neutrons
5
Une solution a un pH de 3. Cette solution est :
Basique
Neutre
Acide
Homogene
Acide
6
Le systeme solaire est compose de
6 planetes
7 planetes
8 planetes
9 planetes
8 planetes
7
La lune est :
Une planete
Une comete
Un asteroide
Un satellite
Un satellite
8
La gravitation universelle est :
Une interaction attractive
Une interaction repulsive
Une interaction de contact
Une interaction physique
Une interaction attractive
9
Deux objets sont en ‘interaction' si :
Ils exercent mutuellement une action l'un sur l'autre
L'un fait bouger l'autre
Ils sont cote a cote
Ils s'attirent
Ils exercent mutuellement une action l'un sur l'autre
10
La loi d'Ohm est :
R = U*I
R = U/I
U = R/I
U = R*I
R = U/I
11
La tension est en :
Amperes
Volts
Watts
Ohms
Volts
12
Le poids s'exprime:
En kg
En g
En Newton
En Kg*m/s^-2
En Kg*m/s^-2
13
Quelle est la formule de l'intensite de la pesanteur ?
P=m*g
M=g*p
G=m*p
V=d/t
P=m*g
14
Quelle est la formule de l'energie cinetique?
EC=P*T
EC=P+T
EC=m+c
EC=0.5*m*v^2
EC=0.5*m*v^2
15
Quel est le nombre d'Avogadro ?
1.602*10^-19
1.602*10^11
6.02*10^23
6.662*10^-34
6.02*10^23
16
Un transistor sert a :
Laisser ou ne pas laisser passer le courant
Attirer les electrons
Ne sert a rien
Ils s'attirent
Laisser ou ne pas laisser passer le courant
17
Le son est une onde :
Triangulaire
Longitudinale
Transversale
Meca-magnetique
Longitudinale
18
La gravitation universelle est une interaction entre deux objets qui depend de:
Leur volume
Leur taille
Leur forme
Leur masse
Leur masse
19
La valeur de l'attraction gravitationnelle est calculee par la relation :
FA/B=FB/A=G*(ma*mb/d)
FA/B=FB/A=G*(ma*mb/d^2)
FA/B=FB/A=G*(mb/d)
FA/B=FB/A=G*(mb^2/d^2)
FA/B=FB/A=G*(ma*mb/d^2)
20
Le soleil a une masse :
Moins importante que certaines planetes
Moins importante que toutes les planetes
1000 fois plus importante que toutes les planetes confondues du systeme solaire
Moins importante que Venus
1000 fois plus importantes que toutes les planetes confondues du systeme solaire
21
L'energie cinetique est :
L'energie d'un corps grace a sa vitesse
L'energie d'un corps grace a son acceleration
L'energie d'un corps grace a sa position
L'energie d'un corps grace a son volume
L'energie d'un corps grace a sa vitesse
22
La lumiere du soleil nous parvient en :
Quelques jours
Quelques annees
Quelques minutes
Instantanement
Quelques minutes
23
En quelle annee a ete mise en service la premiere centrale nucleaire en France ?
1953
1963
1973
1999
1963
24
Sur quel site se trouve, en France, l'usine de retraitement du combustible ?
La Hague
Dampierre
Flamanville
Grenoble
La Hague
25
Un atome qui a perdu un ou plusieurs electrons est un :
Ion positif
Ion negatif
Atome
Super atome
Ion positif
26
Un ion :
Est electriquement neutre
Est electriquement charge
A perdu ou a gagne des protons
Est un atome qui a perdu ou gagne des electrons
Est un atome qui a perdu ou gagne des electrons
27
Un atome qui a gagne un ou plusieurs electrons est un :
Ion positif
Ion negatif
Atome
Super atome
Ion negatif
28
Un ion positif est un :
Ion
Atome
Cation
Anion
Cation
29
L'ion Na+ provient d'un atome qui a :
Perdu deux electrons
Gagne un electrons
Perdu un electrons
Gagne deux electrons
Perdu un electrons
30
Pour identifier des ions en solution, on utilise :
Un acide
Un reactif specifique
De l'eau de chaux
De la vanille
Un reactif specifique
31
En presence de soude, l'ion fer (II) forme un precipite de couleur :
Bleue
Orangee
Verte
Blanche
Verte
32
Qui a decouvert le principe de l'interaction gravitationnelle ?
Copernic
Erasme
Galilee
Newton
Newton
33
Ou faudrait-il placer deux objets pour les voir se deplacer l'un vers l'autre ?
Dans le vide spatial
Dans l'air
A proximite du centre de la Terre
Dans l'eau
Dans le vide spatial
34
Pourquoi l'objet lache sur Terre se deplace  alors que la Terre ne bouge pas?
Car la masse de la Terre est egale a celle de l'objet
Car la masse de la Terre est beaucoup moins importante que celle de l'objet
Car la masse de la Terre est beaucoup plus importante que celle de l'objet
Car il n'y a pas d'interaction entre la Terre et l'objet
Car la masse de la Terre est beaucoup plus importante que celle de l'objet
35
Vers quoi se deplace un objet que l'on lache sur Terre ?
Vers le magma
Vers l'eau
Vers le ciel
Vers le centre de la Terre
Vers le centre de la Terre
36
Quelle planete de notre systeme solaire est la plus proche du Soleil ?
Mars
Mercure
Terre
Venus
Mercure
37
L'energie mecanique represente :
La multiplication de l'energie cinetique et de l'energie de position
La soustraction de l'energie cinetique et de l'energie de position
La somme de l'energie de position et de l'energie cinetique
La division de l'energie de position et de l'energie cinetique
La somme de l'energie de position et de l'energie cinetique
38
L'energie mecanique s'exprime en :
Watt
Joule
Metre par seconde
Kilowatt
39
Au cours d'un mouvement sans frottement, l'energie mecanique :
Se multiplie par deux
Se divise par deux
Se conserve
N'existe plus
Se conserve
40
Il existe:
Une seule forme d'energie
Deux forme d'energie
Plusieurs formes d'energie
Aucune forme d'energie
Plusieurs formes d'energie
41
Le poids d'un objet se mesure avec :
Un dynamometre
Un metre
Une balance
Un entonnoir
Un dynamometre
42
Au sein d'une pile electrochimique se passe :
Une transformation physique
Une transformation chimique
Une transformation thermique
Une transformation magnetique
Une transformation chimique
43
En melangeant du zinc et une solution de sulfate de cuivre, la temperature :
Diminue
Augmente
Reste constante
Nulle
Augmente
44
Une pile electrochimique est constituee par :
Deux electrodes de meme nature et une solution conductrice
Deux electrodes de meme nature et une solution non conductrice
Deux electrodes differentes et une solution conductrice
Deux electrodes differentes et une solution non conductrice
Deux electrodes differentes et une solution conductrice
45
Quels sont les deux types de melanges qu'il peut exister ? Les melanges...
Homogenes et heterogenes
Homogenes et heterogenes
Opaques et homogenes
Opaques et heterogenes
Homogenes et heterogenes
46
Quel type de melange fait apparaitre deux phases ?
Heterogene
Opaque
Homogene
Fluide
Heterogene
47
Quel type de melange ne fait apparaitre qu'une seule phase ?
Opaque
Homogene
Heterogene
Fluide
Homogene
48
Quel type de melange le sucre forme-t-il dans l'eau ?
Homogene
Opaque
Heterogene
Fluide
Homogene
49
Quel type de melange le vinaigre forme-t-il dans l'huile ?
Opaque
Homogene
Heterogene
Fluide
Heterogene
50
Que fait le sel dans l'eau ?
Il devient invisible
Il double de volume
Il se dissout
Il disparait
Il se dissout
51
Quel type de melange est realise lors de l'ajout de pierres ponces dans l'eau ?
Miscible
Heterogene
Opaque
Fluide
Heterogene
52
Est-ce que les pierres ponces se dissolvent ?
Oui
Non
Elles retrecissent
Peut etre
Non
53
La partie de l'atmosphere la plus proche de la surface du globe s'appelle :
La mesosphere
La stratosphere
La troposphere
La homosphere
La troposphere
54
Que declenche un appareil electrique qui est utilise en surtension ?
Son arret instantane
Sa propre deterioration
Une petite etincelle sans danger
Son clignotant
Sa propre deterioration
55
A quoi sert la fonction d'onde en mecanique quantique ?
A trouver la position de l'electron
A trouver les constantes A , B de l'equation differentielle
A trouver la probabilite de presence de l'electron
A rien
A trouver la probabilite de presence de l'electron