1
QUESTION 1
PROPOSITION 1
RePONSE
PROPOSITION 3
PROPOSITION 4
RePONSE
2
QUESTION 2
PROPOSITION 1
PROPOSITION 2
PROPOSITION 3
PROPOSITION 4
RePONSE
3
QUESTION 3
PROPOSITION 1
PROPOSITION 2
PROPOSITION 3
PROPOSITION 4
RePONSE